…
The code chunk below imports the specific data from the xlsx file in and performs some data manipulation steps:

``` r
library(readxl)
trash_wheel_data = read_excel("./data/HealthyHarborWaterWheelTotals2017-9-26.xlsx", sheet = "Mr. Trash Wheel", range = cell_cols("A:N"), col_names = TRUE) %>% 
  janitor::clean_names() %>% 
  filter(!(dumpster == "NA")) %>% 
  mutate(sports_balls = round(sports_balls)) %>% 
  mutate(sports_balls = as.integer(sports_balls))

trash_wheel_data
```

    ## # A tibble: 216 x 14
    ##   dumpster month  year date                weight_tons volume_cubic_ya…
    ##      <dbl> <chr> <dbl> <dttm>                    <dbl>            <dbl>
    ## 1        1 May    2014 2014-05-16 00:00:00        4.31               18
    ## 2        2 May    2014 2014-05-16 00:00:00        2.74               13
    ## 3        3 May    2014 2014-05-16 00:00:00        3.45               15
    ## # ... with 213 more rows, and 8 more variables: plastic_bottles <dbl>,
    ## #   polystyrene <dbl>, cigarette_butts <dbl>, glass_bottles <dbl>,
    ## #   grocery_bags <dbl>, chip_bags <dbl>, sports_balls <int>,
    ## #   homes_powered <dbl>
…
-   What state is observed the most?

Answer:

The code below uses the data from the brfss\_reformat to count the number of states and displays them in descending order by using the arrange function.

``` r
brfss_reformat %>% 
  janitor::clean_names() %>%
  count(state) %>% 
  arrange(desc(n, state))
```

    ## # A tibble: 51 x 2
    ##   state     n
    ##   <chr> <int>
    ## 1 NJ      146
    ## 2 FL      122
    ## 3 NC      115
    ## # ... with 48 more rows
…
